%YAML 1.1
%TAG !u! tag:unity3d.com,2011:
--- !u!114 &11400000
MonoBehaviour:
  m_ObjectHideFlags: 0
  m_CorrespondingSourceObject: {fileID: 0}
  m_PrefabInstance: {fileID: 0}
  m_PrefabAsset: {fileID: 0}
  m_GameObject: {fileID: 0}
  m_Enabled: 1
  m_EditorHideFlags: 0
  m_Script: {fileID: 11500000, guid: 24111848f364bb94e886c5f1f04eed56, type: 3}
  m_Name: Sphere
  m_EditorClassIdentifier: 
  _damage: 12
  _attackSpeed: 1
  _range: 30
  _speed: 4
  _health: 80
  _armor: 0.1
  _gold: 0
  _expirience: 0
  startDamage: 12
  startAttackSpeed: 1
  startRange: 30
  startSpeed: 4
  startHealth: 80
  startArmor: 0.1
